{
  "server": {
    "secretKey": "moviluApp",
    "tokenExpiration": "365 days"
  },
  "redis": {
    "port": "",
    "host": "",
    "password": ""
  },
  "firebase": {
    "sendUrl": "https://fcm.googleapis.com/fcm/send",
    "serverKey": "AAAAGgT_T1Y:APA91bFEPhoSuJOYv9-wmfAxUYXfu5P8XPVS13PPIuu0-WvAhFjl1MgY7j-9AXG4_aLE8yRlKQ_m08a_xaJkZf9HwsF2Z3juAyJZQfUe7Ojrvu1YvV8FHmA3BxtjIKoXJplGjhF0Ew4c"
  },
  "cuadrantes": [
    {
      "nombre": "Cuadrante universidad Tecnologica De Bolivar",
      "direccion": "Km, Cl. 1, Turbaco, Cartagena, Bolivar, Colombia",
      "location": {
        "type": "Point",
        "coordinates": [5.054237983969346,52.64661654927096]
      }
    },
    {
      "nombre": "Cuadrante universidad De Cartagena",
      "direccion": "Avenida del Consulado #Calle 30 No. 48 152, Cartagena, Cartagena de Indias, Bolívar, Colombia",
      "location": {
        "type": "Point",
        "coordinates": [5.054237983969346,52.64661654927096]
      }
    }
  ]
}
